Machine learning Cards from Twitter in R
…
dim(albon)

## [1] 2000   68

# We could also use the following but I wanted to see the tweets from Chris Albon
# albon1 <- rtweet::search_tweets(q = "machinelearningflashcards.com", 
#                                 include_rts = FALSE, 
#                                 retryonratelimit = TRUE)

We have got a tibble with 2000 observations and 68 columns. Now, let’s look at the actual tweets. We will be looking at the column text as it has the text of the tweet.

# Text of tweet
albon[, "text"]

## # A tibble: 2,000 x 1
##                                                                           text
##                                                                          <chr>
##  1            @chrisalbon The devs at @Poshmarkapp didnt get this memo. Haha.
##  2    Please, my sanity and yours, LISTEN TO THIS GUY. https://t.co/TLgXpOOOVM
##  3 @chrisalbon Plus also it's still Mercury Retrograde for another three days.
##  4 Truth. Or in my case, sitting in a McDonald's parking lot stealing their wi
##  5 Ha ha...Reminded of X.Mas 2012. The blame was on the 2 line mainframe cobol
##  6                                       ":/ ~~~~\\o/ https://t.co/1nAoqKTxSh"
##  7                                       #ReadOnlyWeek https://t.co/K5a8VD2PyQ
##  8 @chrisalbon I have done 5 deploys this week and have at least six more. pra
##  9 Deploying during holidays is ALWAYS a bad idea folks https://t.co/ZZMOzxtlP
## 10                                          Lol truth. https://t.co/nQJyo2C1zk
## # ... with 1,990 more rows
…
